{
    "prepare_queue": {
        "installed": [],
        "uninstalled": []
    },
    "config_munge": {
        "files": {}
    },
    "installed_plugins": {
        "cordova-plugin-whitelist": {
            "PACKAGE_NAME": "com.tapper.gtech"
        },
        "cordova-plugin-facebook4": {
            "APP_ID": "1391047697578092",
            "APP_NAME": "gtech",
            "PACKAGE_NAME": "com.tapper.gtech"
        },
        "cordova-plugin-datepicker": {
            "PACKAGE_NAME": "com.tapper.gtech"
        },
        "ionic-plugin-keyboard": {
            "PACKAGE_NAME": "com.tapper.gtech"
        }
    },
    "dependent_plugins": {}
}